…
``` r
recleaned_fragrance_df %>% 
  group_by(brand_name) %>% 
  count(price, name = "price_count") %>% 
  add_count(brand_name, name = "brand_count") %>% 
  filter(brand_count == 2)
```

    # A tibble: 114 × 4
    # Groups:   brand_name [57]
       brand_name        price   price_count brand_count
       <chr>             <chr>         <int>       <int>
     1 4711              $                13           2
     2 4711              $, $, $           7           2
     3 Aether            $, $             20           2
     4 Aether            $, $, $           5           2
     5 Afnan             $                33           2
     6 Afnan             $, $, $           3           2
     7 Ajmal             $, $            220           2
     8 Ajmal             $, $, $          32           2
     9 Alexander McQueen $, $              3           2
    10 Alexander McQueen $, $, $           8           2
    # ℹ 104 more rows
…
``` r
recleaned_fragrance_df %>% 
  count(frag_classifier)
```

    # A tibble: 271 × 2
       frag_classifier               n
       <chr>                     <int>
     1 Amber Classical             575
     2 Amber Classical Gourmand     12
     3 Amber Crisp                  31
     4 Amber Crisp Citrus           28
     5 Amber Crisp Citrus Fruity     1
     6 Amber Crisp Fruity           36
     7 Amber Crisp Gourmand         63
     8 Amber Crisp Green             3
     9 Amber Crisp White Flower     13
    10 Amber Fresher                73
    # ℹ 261 more rows
…
